{
  "type": "service_account",
  "project_id": "project-5409796454043349927",
  "private_key_id": "257777f0b81c048dcd0883d4e76a9f36a693be46",
  "private_key": "-----BEGIN PRIVATE KEY-----\nMIIEvwIBADANBgkqhkiG9w0BAQEFAASCBKkwggSlAgEAAoIBAQCvEDf9eYtSlUur\nN9R48WYb9/lk+CoNj3aaO1oNhgQs/2s37sR08zf53xQ/ggTPFWmLFdMU+bdxTbGf\n0pUEtpFLi1JjwuH27SKtGCC7KBbD/CUypbmXDFhrtx2h5GbTHMb2sJhVsZcSajHR\nc1NEFxbQo4+/5oCg6GwKntLQLfumnH5tU1ntLS68b0NlTeskDqWljco0sHpHpiqB\nVjpSqpdpKQLuBxOnXaEAalaMTk1N1rTbhu1xtgVnqurW/x4XLCA4ly4a3C4WIGX/\napHa2Sm2hA6AX6SocpQJNDlALHtXKnOKmgS+rSv5D14VGjecF5mXxHjdWiOMNv2g\nLHUPYtajAgMBAAECggEAAUlDuAuIEAPDyg6/c2IGp4bzYKAIIxBeRTTRbQ8Cgdgg\nkAkjjV5qF15htjO82E6md1yiL+HDzMPO3cc8zAuRVrY/1TbN1TQZ0J7AQs/BFxCH\nr28TRX5UOfpe790POlbYSWCzxdFntD1uf0TzJCltQ/wnprfJUyVSAeP31Yq48hjq\nHs2aFO2W+IxUu8nLzVCl79E8tBsRjIzY/QqvhQsmHzLO0wTdGmu94Lo+DZatIUX2\nzJluDO5rE7QHoWviHF+bdJs0d1mRHheLubsreecM+tlaLyvubbFd3W6Kif6E9H9l\nnGaq8vZs7yAflnKDgCuNVT9a81D/NklwTdcLg2S+iQKBgQDpL3Jgzt3fB9E4WCnC\n5/RFIHeywfOcIHzFmLSPHfX8JIZqVWKCcRLo7jUDfME/klNMMwF9jmjBAtXjYwZP\nnMDtoNMVp45d2+3pLu79Wo1CdNAvH3yIG8+5UZqH1lFbew8awYn2Uj9Q3KRZyf8w\nZzfqNedXRjxQheYM/7tkP3qSuQKBgQDAMQAjGsNE/7A8bvP+LHH4EI7FH2Lu1mcM\nLagEI5ozaEtjyXTq6dBGk1czyC9c+ndoW9a0BAQoap+vOK7jE7Cr92GymylpQ64y\nw8c7rGk1Myu/MxoWGm+EbXtnOfl06xKEOVz2bdMxvxQ9rSUoVptdFGfK1iXIxaNM\n/Ux1VLA2OwKBgQDj3MpvERa8P55R6cz9Ob534k81bdOIqDJkwGEITSW3e1WiCMfX\nYXkyBrvlKX6JiYo+NsVpFMUGfqfVqEldeHcKfhJm4bH7w9LK/2LoThklbJKWybTe\nKBcnJzfTLzmXJDxRT/hprFtUwBcV6o6klOiNxJjIrsh3gzCXWTqbrnAveQKBgQCW\n46Gk7fUS7d9ygvXCvyg3RuCgOLUWqHO85vd7UGxXIfHWhSrq5+jiD/mtqOQujmJD\nJ59YM7MD/Dokek8r7qCNUqp8bD9F6qIQLw7zdbgf0W3uLfO0GMsm4EG7WJPWTFx8\nPQEUZEMkUk1U4uRCWESf/k5CvIBrsWc1IcTudS/nUwKBgQDcTA9N2LjuMlbv74ga\nNc/v27qKcIZv28KWXu0hCIgi/DmPPrJNCAHtWAUWjI4LbQaCo5FvCgXRov5+6nwl\nAgBHkTy8v9SE6lL53FHnk0zT8OS8kpE6KvWTu+fJILxwy9HFL9tO1L9B9hJGNYh1\nrp4+SWHXo+lERVKn2Ji0RVU8JA==\n-----END PRIVATE KEY-----\n",
  "client_email": "firebase-adminsdk-jbpc1@project-5409796454043349927.iam.gserviceaccount.com",
  "client_id": "104885102027463485420",
  "auth_uri": "https://accounts.google.com/o/oauth2/auth",
  "token_uri": "https://accounts.google.com/o/oauth2/token",
  "auth_provider_x509_cert_url": "https://www.googleapis.com/oauth2/v1/certs",
  "client_x509_cert_url": "https://www.googleapis.com/robot/v1/metadata/x509/firebase-adminsdk-jbpc1%40project-5409796454043349927.iam.gserviceaccount.com"
}
